# /Users/joemartaganna/Piliome_Project/Programs_Databases/piliomedb_files/phylogenetic_trees_prot/adhesins/uhg28/adhesins_plus_structures_nr100_alignment.fasta -- js_divergence - window_size: 3 - background: /Users/joemartaganna/BioPrograms/conservation_code/scripts/distributions/blosum62.distribution - seq. weighting: True - gap penalty: 1 - normalized: False
# align_column_number	score	column

0	0.14106	-----------------M-M-M--M---
1	0.18411	---------M-------N-N-N--N---
2	0.64623	MMMMMMMMMKMMMMMMMLML-LMMLMM-
3	0.57055	KKKKKKKKKKKKKKKKKKKK-KKKKKK-
4	0.51706	KKITKKKKKSKTKITKKKTK-KKKKKK-
5	0.51758	KLKLLKKTLIILLKLLLILI-ITLIKK-
6	0.46211	LAYKALL-AYSKAYKAAAKA-A-AALL-
7	0.44707	IITNIII-IFINITNIIINI-I-IIII-
8	0.42725	AMMMIAA-MIIMMMMMMAMA-A-MAAA-
9	0.35208	AAKRGAA-AIARAKRAASRS-S-ASAA-
10	0.25415	--M----------M--------------
11	0.23796	--A----------A--------------
12	0.40442	AAARAAAAACSRAARAASRS-SAASAA-
13	0.32151	VTVKTVVLAPLKAVKATVKV-VLTVVA-
14	0.31823	-SANS--FSVVNSANSSINF-FFSF---
15	0.31594	LTSLVLLLMLFLMSLMTALA-ALTALL-
16	0.17504	---Y-------C--C---Y---------
17	0.15169	---I-------I--I---I---------
18	0.13005	---T-------T--T---T---------
19	0.10476	---L-------L--L---L---------
20	0.12552	---G-------G--G---G---------
21	0.15157	---L-------L--L---L---------
22	0.16775	---V-------V--V---V---------
23	0.28680	FIVSMFF-VSSSVVSVI-S----I-FF-
24	0.35531	MLMLMMM-FLLLFMLFL-L----L-MM-
25	0.31412	TAVLMTT-AYYLAVLAA-L----A-TT-
26	0.36727	AMASTAA-VCSSVASVM-S----M-AA-
27	0.45354	NSGGGNNASGGGSGGSSGGG-GASGNN-
28	0.40880	MSIGTMMLSMLGSYGSSIGI-ILSIMM-
29	0.49050	ASAAAAASATSAAAAASTAT-TSSTAA-
30	0.44412	NHTNQNNLHMINHINHHMNM-MLHMNN-
31	0.48740	AAAAAAAGAAAAAAAAAAAP-AGAAAAG
32	0.37301	AANANAAGGEAAGDAGALAL-LGALAAS
33	0.31441	--DS---I-I-L-AL--TST-TI-T---
34	0.32908	--N----C-----N---C-C-CC-C---
35	0.26405	--V----A-----G---H-H-HA-H---
36	0.31660	--LQ---A-L-Q-LQ--AQA-AA-A---
37	0.29251	--N----N-PD--N---V-V-VN-V---
38	0.26256	--G----A-PP--T---T-T-TA-T---
39	0.26272	--V----A-SV--V---V-V-VA-V---
40	0.18568	--G------NI--N--------------
41	0.14045	--G----------A--------------
42	0.14138	--A----------G--------------
43	0.18486	--D------TT--D--------------
44	0.18851	--G------IG--G--------------
45	0.26503	TFIQFTT-FSNKFKKFF-Q----F-TTF
46	0.29260	LTRTTLL-TRKPTNPTT-T----T-LLT
47	0.29473	DGLTSDD-PDGTPLTPG-T----G-DDP
48	0.35793	NSG-SNN-SSNSSGSSS------S-NNS
49	0.34519	TGT-GTT-GTIKGTKGG------G-TTG
50	0.40172	SSA-TSSTTAATTATTN-----TS-SST
51	0.42199	STT-NSSQTSSTTTTTT-----QT-SST
52	0.41042	VGAQGVVAGAAEGAEGG-E---AG-VVG
53	0.53480	KTSTKKKTTQTTTTTTTTTTMTTTTKKT
54	0.44041	ATGIVAASTGAITAITTAIAKASTAAAT
55	0.52811	DKTRDDDTKTKRKTRKKTRTYTTKTDDK
56	0.51402	FLILLFFVLILLLILLLHLHFHVLHFFL
57	0.51127	ETTTTEETTVKITTITTTTTNTTTTEET
58	0.49833	VVNVIVVIVIFVVTVVVVVVKVIVVVVV
59	0.49766	VTMTTVVSTTVTTLTTTETELESTEVVT
60	0.48789	GEENEGGGENNNEQNEESNSISGESGGE
61	0.45125	GQSDEGGDENKDESDEQDDDLDDQDGGK
62	0.61596	CCCCCCCACCCCCCCCCACACAACACCC
63	0.42725	TQTPRTTVQKSPQSPQQEPEAEVQETTQ
64	0.52182	VVVVVVVYVVLVVVVVVFVFAFYVFVVV
65	0.47883	SLNTTSSSRSNTRDTRLTTTVTSLTSSR
66	0.47640	GVLIVGGIVILIVLIVVIIIVIIVIGGV
67	0.47914	TTTTETTEGTSTGNTGTDTDTDETDTTG
68	0.42584	WGITSWWADTIADLADGWTWAWAGWWWD
69	0.38221	TSATKTTQLPSFLVFLSVTVFVQSVTTL
70	0.40084	GDT-SGG-TAGSTTSTDD-DGD-DDGGT
71	0.41556	EAPPEEE-VQ-PVPPVAAPAAA-AAEEV
72	0.34911	QTDPSQQ-AIISANSATGPGNG-TGQQA
73	0.36965	VKAQFVVPKENTKATKKPQPAPPKPVVK
74	0.40105	PTKTLPPATRDTTTTTTTTTATATTPPT
75	0.38062	ARMVRAA-RPEVRVVRRTVTTT-RTAAR
76	0.30957	----------Y------T-TYT--T---
77	0.32522	--N-------Q--N---N-DND--D---
78	0.37440	AGRGSAA-GAAGGRGGGAGARA-GAAAG
79	0.23866	-------K---------K-K-KK-K---
80	0.22234	-------I---------D-D-DI-D---
81	0.20622	-------L---------G-G-GL-G---
82	0.18397	-------G---------E-E-EG-E---
83	0.18411	-------T---------V-V-VT-V---
84	0.21578	-------W---------W-W-WW-W---
85	0.20840	-------L---------G-G-GL-G---
86	0.23836	-------G---------H-H-HG-H---
87	0.29039	V-AV-VVK-TQV-AV--LVLELR-LVV-
88	0.35326	YEGSGYYDQQPSQGSQEDSDGDDEDYYQ
89	0.34230	QLMSLQQALAGSLMSLLMSMEMTLMQQL
90	0.37374	GTQTVSGNTKRTTLTTTTTTTTNTTGGT
91	0.25371	--------------------T-------
92	0.34266	SDETASS-DQGKDAKDDQKQQQ-DQSSD
93	0.35811	AGNPNTA-ATAPANPAGTQTTT-GTAAA
94	0.32861	KARIRRK-AHLIARIAARIRIR-ARKKA
95	0.22126	-----------------G-G-G--G---
96	0.24045	-----------------T-T-T--T---
97	0.25755	-----------------P-P-P--P---
98	0.35045	RREGHRR-PHRTPETPRTGTVT-RTRRP
99	0.42486	VVIFIVVVIVVLIILIVLFFIFVVFVVI
100	0.46597	GGTSTGGGGTTGGTGGGGSGTGGGGGGG
101	0.30059	-------G---------R-KKKG-K---
102	0.28151	-------F---------L-LPLF-L---
103	0.24025	-------I---------S-RLRI-R---
104	0.20261	-----------------N-NTN--N---
105	0.19725	-----------------P-PLP--P---
106	0.20486	-----------------Q-QQQ--Q---
107	0.17176	-----------------G-GAG--G---
108	0.19036	-------V---------E-EQEV-E---
109	0.13368	--------------------N-------
110	0.13391	--------------------N-------
111	0.14193	--------------------Y-------
112	0.20161	-------S---------T-TKTS-T---
113	0.21689	-------N---------S-SVSN-S---
114	0.23583	-------A---------P-PAPA-P---
115	0.24353	-------G---------G-GDGG-G---
116	0.25242	-------P---------P-PDPP-P---
117	0.21515	-------I---------L-LKLV-L---
118	0.21939	-------E---------K-KAKE-K---
119	0.20485	-------G---------A-ASAG-A---
120	0.23016	-------K---------P-PGPK-P---
121	0.20762	-------A------------G-A-----
122	0.21904	-------E------------A-E-----
123	0.38854	VVKANVVVPFFAPKAPVFAFAFVVFVVP
124	0.37378	LLFKLLLVVTTTVFTVLRKSVSVLSLLV
125	0.37451	GSKVGGGFTIPVTSVTSFVFRFFSFGGT
126	0.49075	IVVTIIIDVTTTVVTVVTTTTTEVTIIV
127	0.46538	STATQSSGQQFTQGTQTGTGTGGTGSSQ
128	0.49590	LASSSLLAADDAASAAAPSPDPAAPLLA
129	0.44319	SKNDTSSNLPNDLKDLKNDDGDNKDSSL
130	0.48765	GGDQGGGMGSNQGDQGGGQGSGMGGGGG
131	0.55237	CCCCCCCCCCCCCCCCC-C-K-CC-CCC
132	0.33812	TNPIGTTRDAKVDPVDN-I-A-RN-TTD
133	0.42927	STTKTSSSANNKASKAT-K-N-TT-SSA
134	0.34614	QEDAGQQERIIARDARE-A-L-EE-QQR
135	0.34172	VHTGQVVSQGNGQTGQH-G-Y-SH-VVQ
136	0.36314	YAYARYY-VSAAVYAVA-A-I--A-YYV
137	0.36117	FAAKVFF-ARKRAARAA-K-A--A-FFA
138	0.34535	E-VVAEE--IYV-VV---V-V----EE-
139	0.37837	GLWWLGG-LAHWLWWLL-W-A--L-GGL
140	0.31278	-RFLK---KYILKFLKR-L-A--R---K
141	0.37289	-AKWL---AWWWAKWAA-W-S--A---A
142	0.35434	-QEGG---DSGGDEGDQ-G-S--Q---D
143	0.34251	NPITANN-TEDTTITTP-T-T--P-NNT
144	0.41812	DDDGGDD-DGGGDDGDD-G-G--D-DDD
145	0.31949	KNNPSKK-NSIFNGFNN-T-T--N-KKN
146	0.29143	NYV-YNN-FQN-FE-FY------Y-NNF
147	0.26016	SHGADSS-ESNREGREH-A----H-SSE
148	0.28776	EQNNDDE-QGKNQQNQQ-N----Q-EEQ
149	0.19897	-G--T---G---G--GG------G---G
150	0.21117	---KN------K--K---K---------
151	0.33357	GKGWGGG-K--WKGWKK-W-D--K-GGK
152	0.29004	LIIVALL-F--VFVVFI-V-A--I-LLF
153	0.32431	PVALHPP-FFFLFALFV-L-V--V-PPF
154	0.40419	QLQQMQQ-LRQQLQQLL-Q-R--L-QQL
155	0.32710	ALGHTAA-IMLHIGHIL-H-I--L-AAI
156	0.31194	TR-AHTT-SVITS-TSR-T-A--R-TTS
157	0.36737	DDKKEDD-DNNTDTTDD-K-A--D-DDD
158	0.37354	PDVVNPP-NTENNTNND-V-D--D-PPN
159	0.37773	KQNAGKKSNSRTNVTNQHAHSHAQHKKN
160	0.47257	GQTKTGGTRNGTRTTRQTQTGTTQTGGR
161	0.48201	NANQDNNSDPDQDNQDAAQANASAANND
162	0.51259	KRRKKKKPKSKKKKKKRRKRLRPRRKKK
163	0.44211	IIFYLIICLSYYLFYLIAYATACIAIIL
164	0.51239	VNYTLTVYYYTTYYTYNYTYLYYNYVVY
165	0.49023	VVLLVIIIVYLLVLLVVLLLILIVLIVV
166	0.37588	IRRNSIIDNTSQNKQNRDNDGSDRDIVN
167	0.40304	PLMPMPPKIFEPIMPILSPSQSKLSPPI
168	0.38974	S-AS-SST-KYD-TD--YSYAYT-YSS-
169	0.33055	F-SI-FFD-TFI-SI--GIGAGD-GFF-
170	0.34512	DQTDGNDPRVVDRADRQTDACAPQANDR
171	0.36763	ASNGSAATPSGNPDGPSAGPGPTSPAAP
172	0.31521	LSGGALLKMEGNMGNTSIGISIKSILLT
173	0.37483	NDTATNNNDSNADTADDHAHGHNDHNND
174	0.29169	NGEDGTNINSLDNADNGNYNVNIGNNNN
175	0.34891	LSSF-LL-SVDFSSFSSYFYSY-SYLLS
176	0.25461	-----------------A-APA--A---
177	0.26163	--Q----------V---G-GVG--G---
178	0.27175	--K----L-----G---D-DLDL-D---
179	0.28313	--D----V-----D---N-NDNV-N---
180	0.26606	--I----Y-----I---L-LTLY-L---
181	0.28374	-------A---------A-AAAA-A---
182	0.26837	-------E---------N-NANE-N---
183	0.28836	-------G---------G-GSGG-G---
184	0.35073	V-SV-VVL-TRL-NL--LVVRVL-VVV-
185	0.34326	SAVNDTSDADVAAIAAAKAKPKSAKSSA
186	0.41571	KWGQGKKWWTGNWGNWWVQVGVWWVKKW
187	0.40293	DNNGTDDATLTGTTGTNGGGAGANGDDT
188	0.36954	ATKTQAA-TW-TTKTTT-S-N--T-AAT
189	0.38859	TNTDDTT-DG-DDSDDN-N-T--N-TTD
190	0.39331	LGGAGLLDNGNANGANGSASASEGSLLN
191	0.40460	NDKKGNNAGSTTGKTGDGKGAGADGNNG
192	0.40871	VT-IVVVTVKGIV-IVTTISISTTSVVV
193	0.46487	FVGYYFFGFQHHFGHFVGYGQGGVGFFF
194	0.45061	YYLKYYYFYYFKYLKYY-K-C-FY-YYY
195	0.40726	SRSKISSTKSSKKSKKR-K-A-TR-SSK
196	0.37084	KAGLNKKTNLGLNGLNADLNSNTANKKN
197	0.37987	NDKTRNNPDATTDQTDDDTT-DPDTNND
198	0.34503	SALSDSSVVKVMVLMVAPSP-PVAPSSV
199	0.34061	LGAGGLLIGRTRGVRGGFGF-FIGFLLG
200	0.38943	NNNNNNNQSGRDSGDSNVNV-VQNVNNS
201	0.36479	DW--WDDAWVS-W--WWV-V-VAWVDDW
202	0.43393	GGGKNGGGGDGKGGKGGGKGAGGGGGGG
203	0.35993	DGAFGDDAGNNTGKTGGTFTSTAGTDDG
204	0.33006	T-FL-TTK---L-FL--TLASTK-ATT-
205	0.32420	LNENQLLSILYRTDRTNSNSVSSNSLLI
206	0.32511	SLGAMSSTIRNAMGAILRARARTLRSSI
207	0.33966	VLKSVVVIGVVSGKSGLLSLTLIFLVVG
208	0.38296	EVIVFEENISQVIIVIVTVTITNVTEEI
209	0.36215	FVTSIFFMYIVNYTNYVASAVAMVALFY
210	0.45688	VVLVVVVKVQVVVVVVVKVRNKKVRVVV
211	0.44329	NDANRNNADIINDANDDINIGIADINND
212	0.44009	RGQPNRRTGPPPGYPGGFPFMFTGFRRG
213	0.49793	DDDKDDDQQQDQQDQQDGTGEGQDGDDQ
214	0.42736	QNTTQQQEQT-AQSAQNDTDPDENDQQQ
215	0.50181	WVTQQWWQTSQQTAQTVQQQAQQVQWWT
216	0.46474	NDGVHNNTNNYVNTVNDTVTSTTDTNNN
217	0.44997	AKVLLAALTFILTALTKLLLPLLKLAAT
218	0.52509	KPPIPKKKPIKIPPIPPVIVEVKPVKKP
219	0.59425	AAVPTAAPPPPPPAPPAPPPAPPAPAAP
220	0.64551	GGDGGGGGGGGGGDGGGGGGGGGGGGGG
221	0.55687	KSVEKKKVNRSENVENSVEVEVVSVKKN
222	0.71653	HYYYYHHYYYYYYYYYYYYYYYYYYHHY
223	0.59702	TITTTTTETTSTTTTTIRTRTREIRTTT
224	0.54960	MLYMLMMLLLIMLYMLLTMTFTLLTMML
225	0.56294	TNNINTTTTGTTADTTNTITTTTNTTTT
226	0.51953	LLLLLLLALLALLLLLLFVFQFALFLLL
227	0.50884	NDMHENNSTNHHTMHTDEHEEETDENNT
228	0.46523	VGAAGVVIGAGAGAAGGLALYLVGLVVG
229	0.49827	GGAAGGGQGGVGGAGGGTATGTQGTGGG
230	0.47337	TYVVFTTVYLMIYVIYYTVTTTVYTTTY
231	0.58724	YWYDWYYAWVVNWYNWWWDWYWAWWYYW
232	0.42910	SVSFTSSTAMLFAVFAVTFTVTTVTSSA
233	0.40821	ISQ-KIINKNP-KQ-KSD-DDDNSDII-
